<?xml version="1.0" encoding="UTF-8"?>
<!DOCTYPE svg PUBLIC "-//W3C//DTD SVG 1.1//EN" "http://www.w3.org/Graphics/SVG/1.1/DTD/svg11.dtd">
<!-- Creator: CorelDRAW X8 -->
<svg xmlns="http://www.w3.org/2000/svg" xml:space="preserve" width="57.4249mm" height="24.9999mm" version="1.1" style="shape-rendering:geometricPrecision; text-rendering:geometricPrecision; image-rendering:optimizeQuality; fill-rule:evenodd; clip-rule:evenodd"
viewBox="0 0 5743 2500"
 xmlns:xlink="http://www.w3.org/1999/xlink">
 <defs>
  <style type="text/css">
   <![CDATA[
    .fil0 {fill:none}
    .fil1 {fill:#FEFEFE}
   ]]>
  </style>
 </defs>
 <g id="Camada_x0020_1">
  <metadata id="CorelCorpID_0Corel-Layer"/>
  <g id="_2163097522160">
   <path class="fil0" d="M214 942l677 0c369,0 670,302 670,670l0 0c0,369 -301,671 -670,671l-7 0c-369,0 -670,-302 -670,-671l0 -670z"/>
   <path class="fil1" d="M2363 2024c106,107 238,158 401,158 170,0 310,-59 423,-185 26,-35 52,-72 77,-107l1 -2 1 -1c32,-41 77,-67 129,-67 93,0 159,62 159,156 0,25 -6,49 -17,72l-2 5 -3 5c-79,136 -188,243 -325,322 -137,79 -285,120 -443,120 -245,0 -456,-87 -629,-260 -173,-172 -260,-384 -260,-628 0,-244 87,-455 260,-627 173,-173 384,-260 629,-260 101,0 201,19 296,53 104,37 200,95 287,162 96,73 205,179 205,309 0,58 -29,107 -78,134l-1111 641zm800 -825c-106,-105 -238,-156 -400,-156 -159,0 -293,54 -405,167 -113,112 -168,244 -168,403 0,48 5,94 16,139l957 -553z"/>
   <path class="fil1" d="M300 725l591 0c488,0 884,400 884,887 0,487 -396,888 -884,888l-7 0c-488,0 -884,-401 -884,-888l0 -1612 300 725zm14 318l0 569c0,314 257,570 570,570l7 0c313,0 570,-256 570,-570 0,-313 -257,-569 -570,-569l-577 0z"/>
   <path class="fil1" d="M4140 2024c106,107 238,158 401,158 170,0 310,-59 423,-185 27,-35 52,-72 78,-107l1 -2 1 -1c31,-41 76,-67 129,-67 92,0 158,62 158,156 0,25 -6,49 -16,72l-3 5 -2 5c-80,136 -189,243 -326,322 -137,79 -285,120 -443,120 -244,0 -456,-87 -628,-260 -173,-172 -260,-384 -260,-628 0,-244 87,-455 260,-627 172,-173 384,-260 628,-260 102,0 201,19 297,53 103,37 200,95 287,162 95,73 205,179 205,309 0,58 -29,107 -78,134l-1112 641zm800 -825c-106,-105 -238,-156 -400,-156 -159,0 -292,54 -405,167 -113,112 -168,244 -168,403 0,48 5,94 17,139l956 -553z"/>
   <polygon class="fil1" points="5560,2078 5651,2131 5743,2183 5743,2289 5743,2394 5651,2447 5560,2500 5468,2447 5377,2394 5377,2289 5377,2183 5468,2131 "/>
  </g>
 </g>
</svg>
